    digraph artif {
        artifact[fontname=Cabin,
            shape=rectangle,
            color=blue,
            fontcolor=white,
            style="rounded,filled",
            bgcolor=blue,
            fillcolor=blue]
    }
